endterm/Project1127/simulation/qsim/Project1127.msim.vcd
$comment
	File created using the following command:
		vcd file Project1127.msim.vcd -direction
$end
$date
	Wed Nov 27 11:00:47 2024
$end
$version
	ModelSim Version 10.5b
$end
$timescale
	1ps
$end

$scope module topmodule_vhd_vec_tst $end
$var wire 1 ! CK $end
$var wire 1 " DIGIT_SELECT [2] $end
$var wire 1 # DIGIT_SELECT [1] $end
$var wire 1 $ DIGIT_SELECT [0] $end
$var wire 1 % SEG [6] $end
$var wire 1 & SEG [5] $end
$var wire 1 ' SEG [4] $end
$var wire 1 ( SEG [3] $end
$var wire 1 ) SEG [2] $end
$var wire 1 * SEG [1] $end
$var wire 1 + SEG [0] $end

$scope module i1 $end
$var wire 1 , gnd $end
$var wire 1 - vcc $end
$var wire 1 . unknown $end
$var wire 1 / devoe $end
$var wire 1 0 devclrn $end
$var wire 1 1 devpor $end
$var wire 1 2 ww_devoe $end
$var wire 1 3 ww_devclrn $end
$var wire 1 4 ww_devpor $end
$var wire 1 5 ww_CK $end
$var wire 1 6 ww_SEG [6] $end
$var wire 1 7 ww_SEG [5] $end
$var wire 1 8 ww_SEG [4] $end
$var wire 1 9 ww_SEG [3] $end
$var wire 1 : ww_SEG [2] $end
$var wire 1 ; ww_SEG [1] $end
$var wire 1 < ww_SEG [0] $end
$var wire 1 = ww_DIGIT_SELECT [2] $end
$var wire 1 > ww_DIGIT_SELECT [1] $end
$var wire 1 ? ww_DIGIT_SELECT [0] $end
$var wire 1 @ \~QUARTUS_CREATED_ADC1~_CHSEL_bus\ [4] $end
$var wire 1 A \~QUARTUS_CREATED_ADC1~_CHSEL_bus\ [3] $end
$var wire 1 B \~QUARTUS_CREATED_ADC1~_CHSEL_bus\ [2] $end
$var wire 1 C \~QUARTUS_CREATED_ADC1~_CHSEL_bus\ [1] $end
$var wire 1 D \~QUARTUS_CREATED_ADC1~_CHSEL_bus\ [0] $end
$var wire 1 E \~QUARTUS_CREATED_ADC2~_CHSEL_bus\ [4] $end
$var wire 1 F \~QUARTUS_CREATED_ADC2~_CHSEL_bus\ [3] $end
$var wire 1 G \~QUARTUS_CREATED_ADC2~_CHSEL_bus\ [2] $end
$var wire 1 H \~QUARTUS_CREATED_ADC2~_CHSEL_bus\ [1] $end
$var wire 1 I \~QUARTUS_CREATED_ADC2~_CHSEL_bus\ [0] $end
$var wire 1 J \~QUARTUS_CREATED_GND~I_combout\ $end
$var wire 1 K \~QUARTUS_CREATED_UNVM~~busy\ $end
$var wire 1 L \~QUARTUS_CREATED_ADC1~~eoc\ $end
$var wire 1 M \~QUARTUS_CREATED_ADC2~~eoc\ $end
$var wire 1 N \SEG[0]~output_o\ $end
$var wire 1 O \SEG[1]~output_o\ $end
$var wire 1 P \SEG[2]~output_o\ $end
$var wire 1 Q \SEG[3]~output_o\ $end
$var wire 1 R \SEG[4]~output_o\ $end
$var wire 1 S \SEG[5]~output_o\ $end
$var wire 1 T \SEG[6]~output_o\ $end
$var wire 1 U \DIGIT_SELECT[0]~output_o\ $end
$var wire 1 V \DIGIT_SELECT[1]~output_o\ $end
$var wire 1 W \DIGIT_SELECT[2]~output_o\ $end
$var wire 1 X \CK~input_o\ $end
$var wire 1 Y \U1|BCDCount:Digit0[0]~0_combout\ $end
$var wire 1 Z \U1|BCDCount:Digit0[0]~q\ $end
$var wire 1 [ \U1|Add0~0_combout\ $end
$var wire 1 \ \U1|BCDCount:Digit0[2]~q\ $end
$var wire 1 ] \U1|Digit0~1_combout\ $end
$var wire 1 ^ \U1|BCDCount:Digit0[3]~q\ $end
$var wire 1 _ \U1|Digit0~0_combout\ $end
$var wire 1 ` \U1|BCDCount:Digit0[1]~q\ $end
$var wire 1 a \U2|Mux6~0_combout\ $end
$var wire 1 b \U2|Mux5~0_combout\ $end
$var wire 1 c \U2|Mux4~0_combout\ $end
$var wire 1 d \U2|Mux3~0_combout\ $end
$var wire 1 e \U2|Mux2~0_combout\ $end
$var wire 1 f \U2|Mux1~0_combout\ $end
$var wire 1 g \U2|Mux0~0_combout\ $end
$var wire 1 h \U2|ALT_INV_Mux0~0_combout\ $end
$var wire 1 i \U2|ALT_INV_Mux1~0_combout\ $end
$var wire 1 j \U2|ALT_INV_Mux2~0_combout\ $end
$var wire 1 k \U2|ALT_INV_Mux3~0_combout\ $end
$var wire 1 l \U2|ALT_INV_Mux4~0_combout\ $end
$var wire 1 m \U2|ALT_INV_Mux5~0_combout\ $end
$upscope $end
$upscope $end
$enddefinitions $end
#0
$dumpvars
0!
0,
1-
x.
1/
10
11
12
13
14
05
0J
zK
zL
zM
0N
1O
1P
1Q
1R
1S
1T
1U
0V
0W
0X
1Y
0Z
0[
0\
0]
0^
0_
0`
0a
0b
0c
0d
0e
0f
0g
1h
1i
1j
1k
1l
1m
1%
1&
1'
1(
1)
1*
0+
0"
0#
1$
16
17
18
19
1:
1;
0<
0=
0>
1?
0@
0A
0B
0C
0D
0E
0F
0G
0H
0I
$end
#10000
1!
15
1X
1Z
0Y
1_
1b
1c
1d
1g
0h
0k
0l
0m
0O
0P
0Q
0T
0;
0:
09
06
0*
0)
0(
0%
#20000
0!
05
0X
#30000
1!
15
1X
0Z
1`
1Y
1a
0c
0d
1e
0g
1h
0j
1k
1l
1N
1P
1Q
0R
1T
1<
1:
19
08
16
1+
1)
1(
0'
1%
#40000
0!
05
0X
#50000
1!
15
1X
1Z
0Y
1[
0_
1c
0e
1j
0l
0P
1R
0:
18
0)
1'
#60000
0!
05
0X
#70000
1!
15
1X
0Z
1\
0`
1Y
0b
1d
1g
0h
0k
1m
1O
0Q
0T
1;
09
06
1*
0(
0%
#80000
0!
05
0X
#90000
1!
15
1X
1Z
0Y
1_
0d
1f
0g
1h
0i
1k
1Q
0S
1T
19
07
16
1(
0&
1%
#100000
0!
05
0X
#110000
1!
15
1X
0Z
1`
1Y
0c
1l
1P
1:
1)
#120000
0!
05
0X
#130000
1!
15
1X
1Z
0Y
0[
1]
0_
0a
1b
1c
1d
0f
1i
0k
0l
0m
0N
0O
0P
0Q
1S
0<
0;
0:
09
17
0+
0*
0)
0(
1&
#140000
0!
05
0X
#150000
1!
15
1X
0Z
0\
1^
0`
1Y
1a
0b
0c
0d
1k
1l
1m
1N
1O
1P
1Q
1<
1;
1:
19
1+
1*
1)
1(
#160000
0!
05
0X
#170000
1!
15
1X
1Z
0Y
0]
1c
0l
0P
0:
0)
#180000
0!
05
0X
#190000
1!
15
1X
0Z
0^
1Y
0a
0c
1l
0N
1P
0<
1:
0+
1)
#200000
0!
05
0X
#210000
1!
15
1X
1Z
0Y
1_
1b
1c
1d
1g
0h
0k
0l
0m
0O
0P
0Q
0T
0;
0:
09
06
0*
0)
0(
0%
#220000
0!
05
0X
#230000
1!
15
1X
0Z
1`
1Y
1a
0c
0d
1e
0g
1h
0j
1k
1l
1N
1P
1Q
0R
1T
1<
1:
19
08
16
1+
1)
1(
0'
1%
#240000
0!
05
0X
#250000
1!
15
1X
1Z
0Y
1[
0_
1c
0e
1j
0l
0P
1R
0:
18
0)
1'
#260000
0!
05
0X
#270000
1!
15
1X
0Z
1\
0`
1Y
0b
1d
1g
0h
0k
1m
1O
0Q
0T
1;
09
06
1*
0(
0%
#280000
0!
05
0X
#290000
1!
15
1X
1Z
0Y
1_
0d
1f
0g
1h
0i
1k
1Q
0S
1T
19
07
16
1(
0&
1%
#300000
0!
05
0X
#310000
1!
15
1X
0Z
1`
1Y
0c
1l
1P
1:
1)
#320000
0!
05
0X
#330000
1!
15
1X
1Z
0Y
0[
1]
0_
0a
1b
1c
1d
0f
1i
0k
0l
0m
0N
0O
0P
0Q
1S
0<
0;
0:
09
17
0+
0*
0)
0(
1&
#340000
0!
05
0X
#350000
1!
15
1X
0Z
0\
1^
0`
1Y
1a
0b
0c
0d
1k
1l
1m
1N
1O
1P
1Q
1<
1;
1:
19
1+
1*
1)
1(
#360000
0!
05
0X
#370000
1!
15
1X
1Z
0Y
0]
1c
0l
0P
0:
0)
#380000
0!
05
0X
#390000
1!
15
1X
0Z
0^
1Y
0a
0c
1l
0N
1P
0<
1:
0+
1)
#400000
0!
05
0X
#410000
1!
15
1X
1Z
0Y
1_
1b
1c
1d
1g
0h
0k
0l
0m
0O
0P
0Q
0T
0;
0:
09
06
0*
0)
0(
0%
#420000
0!
05
0X
#430000
1!
15
1X
0Z
1`
1Y
1a
0c
0d
1e
0g
1h
0j
1k
1l
1N
1P
1Q
0R
1T
1<
1:
19
08
16
1+
1)
1(
0'
1%
#440000
0!
05
0X
#450000
1!
15
1X
1Z
0Y
1[
0_
1c
0e
1j
0l
0P
1R
0:
18
0)
1'
#460000
0!
05
0X
#470000
1!
15
1X
0Z
1\
0`
1Y
0b
1d
1g
0h
0k
1m
1O
0Q
0T
1;
09
06
1*
0(
0%
#480000
0!
05
0X
#490000
1!
15
1X
1Z
0Y
1_
0d
1f
0g
1h
0i
1k
1Q
0S
1T
19
07
16
1(
0&
1%
#500000
0!
05
0X
#510000
1!
15
1X
0Z
1`
1Y
0c
1l
1P
1:
1)
#520000
0!
05
0X
#530000
1!
15
1X
1Z
0Y
0[
1]
0_
0a
1b
1c
1d
0f
1i
0k
0l
0m
0N
0O
0P
0Q
1S
0<
0;
0:
09
17
0+
0*
0)
0(
1&
#540000
0!
05
0X
#550000
1!
15
1X
0Z
0\
1^
0`
1Y
1a
0b
0c
0d
1k
1l
1m
1N
1O
1P
1Q
1<
1;
1:
19
1+
1*
1)
1(
#560000
0!
05
0X
#570000
1!
15
1X
1Z
0Y
0]
1c
0l
0P
0:
0)
#580000
0!
05
0X
#590000
1!
15
1X
0Z
0^
1Y
0a
0c
1l
0N
1P
0<
1:
0+
1)
#600000
0!
05
0X
#610000
1!
15
1X
1Z
0Y
1_
1b
1c
1d
1g
0h
0k
0l
0m
0O
0P
0Q
0T
0;
0:
09
06
0*
0)
0(
0%
#620000
0!
05
0X
#630000
1!
15
1X
0Z
1`
1Y
1a
0c
0d
1e
0g
1h
0j
1k
1l
1N
1P
1Q
0R
1T
1<
1:
19
08
16
1+
1)
1(
0'
1%
#640000
0!
05
0X
#650000
1!
15
1X
1Z
0Y
1[
0_
1c
0e
1j
0l
0P
1R
0:
18
0)
1'
#660000
0!
05
0X
#670000
1!
15
1X
0Z
1\
0`
1Y
0b
1d
1g
0h
0k
1m
1O
0Q
0T
1;
09
06
1*
0(
0%
#680000
0!
05
0X
#690000
1!
15
1X
1Z
0Y
1_
0d
1f
0g
1h
0i
1k
1Q
0S
1T
19
07
16
1(
0&
1%
#700000
0!
05
0X
#710000
1!
15
1X
0Z
1`
1Y
0c
1l
1P
1:
1)
#720000
0!
05
0X
#730000
1!
15
1X
1Z
0Y
0[
1]
0_
0a
1b
1c
1d
0f
1i
0k
0l
0m
0N
0O
0P
0Q
1S
0<
0;
0:
09
17
0+
0*
0)
0(
1&
#740000
0!
05
0X
#750000
1!
15
1X
0Z
0\
1^
0`
1Y
1a
0b
0c
0d
1k
1l
1m
1N
1O
1P
1Q
1<
1;
1:
19
1+
1*
1)
1(
#760000
0!
05
0X
#770000
1!
15
1X
1Z
0Y
0]
1c
0l
0P
0:
0)
#780000
0!
05
0X
#790000
1!
15
1X
0Z
0^
1Y
0a
0c
1l
0N
1P
0<
1:
0+
1)
#800000
0!
05
0X
#810000
1!
15
1X
1Z
0Y
1_
1b
1c
1d
1g
0h
0k
0l
0m
0O
0P
0Q
0T
0;
0:
09
06
0*
0)
0(
0%
#820000
0!
05
0X
#830000
1!
15
1X
0Z
1`
1Y
1a
0c
0d
1e
0g
1h
0j
1k
1l
1N
1P
1Q
0R
1T
1<
1:
19
08
16
1+
1)
1(
0'
1%
#840000
0!
05
0X
#850000
1!
15
1X
1Z
0Y
1[
0_
1c
0e
1j
0l
0P
1R
0:
18
0)
1'
#860000
0!
05
0X
#870000
1!
15
1X
0Z
1\
0`
1Y
0b
1d
1g
0h
0k
1m
1O
0Q
0T
1;
09
06
1*
0(
0%
#880000
0!
05
0X
#890000
1!
15
1X
1Z
0Y
1_
0d
1f
0g
1h
0i
1k
1Q
0S
1T
19
07
16
1(
0&
1%
#900000
0!
05
0X
#910000
1!
15
1X
0Z
1`
1Y
0c
1l
1P
1:
1)
#920000
0!
05
0X
#930000
1!
15
1X
1Z
0Y
0[
1]
0_
0a
1b
1c
1d
0f
1i
0k
0l
0m
0N
0O
0P
0Q
1S
0<
0;
0:
09
17
0+
0*
0)
0(
1&
#940000
0!
05
0X
#950000
1!
15
1X
0Z
0\
1^
0`
1Y
1a
0b
0c
0d
1k
1l
1m
1N
1O
1P
1Q
1<
1;
1:
19
1+
1*
1)
1(
#960000
0!
05
0X
#970000
1!
15
1X
1Z
0Y
0]
1c
0l
0P
0:
0)
#980000
0!
05
0X
#990000
1!
15
1X
0Z
0^
1Y
0a
0c
1l
0N
1P
0<
1:
0+
1)
