practice/Project1204/simulation/qsim/Project1204.msim.vcd
$comment
	File created using the following command:
		vcd file Project1204.msim.vcd -direction
$end
$date
	Wed Dec 04 10:57:26 2024
$end
$version
	ModelSim Version 10.5b
$end
$timescale
	1ps
$end

$scope module moore_ex_vhd_vec_tst $end
$var wire 1 ! CK $end
$var wire 1 " Input $end
$var wire 1 # Output $end
$var wire 1 $ PState [3] $end
$var wire 1 % PState [2] $end
$var wire 1 & PState [1] $end
$var wire 1 ' PState [0] $end

$scope module i1 $end
$var wire 1 ( gnd $end
$var wire 1 ) vcc $end
$var wire 1 * unknown $end
$var wire 1 + devoe $end
$var wire 1 , devclrn $end
$var wire 1 - devpor $end
$var wire 1 . ww_devoe $end
$var wire 1 / ww_devclrn $end
$var wire 1 0 ww_devpor $end
$var wire 1 1 ww_Input $end
$var wire 1 2 ww_CK $end
$var wire 1 3 ww_PState [3] $end
$var wire 1 4 ww_PState [2] $end
$var wire 1 5 ww_PState [1] $end
$var wire 1 6 ww_PState [0] $end
$var wire 1 7 ww_Output $end
$var wire 1 8 \~QUARTUS_CREATED_ADC1~_CHSEL_bus\ [4] $end
$var wire 1 9 \~QUARTUS_CREATED_ADC1~_CHSEL_bus\ [3] $end
$var wire 1 : \~QUARTUS_CREATED_ADC1~_CHSEL_bus\ [2] $end
$var wire 1 ; \~QUARTUS_CREATED_ADC1~_CHSEL_bus\ [1] $end
$var wire 1 < \~QUARTUS_CREATED_ADC1~_CHSEL_bus\ [0] $end
$var wire 1 = \~QUARTUS_CREATED_ADC2~_CHSEL_bus\ [4] $end
$var wire 1 > \~QUARTUS_CREATED_ADC2~_CHSEL_bus\ [3] $end
$var wire 1 ? \~QUARTUS_CREATED_ADC2~_CHSEL_bus\ [2] $end
$var wire 1 @ \~QUARTUS_CREATED_ADC2~_CHSEL_bus\ [1] $end
$var wire 1 A \~QUARTUS_CREATED_ADC2~_CHSEL_bus\ [0] $end
$var wire 1 B \CK~inputclkctrl_INCLK_bus\ [3] $end
$var wire 1 C \CK~inputclkctrl_INCLK_bus\ [2] $end
$var wire 1 D \CK~inputclkctrl_INCLK_bus\ [1] $end
$var wire 1 E \CK~inputclkctrl_INCLK_bus\ [0] $end
$var wire 1 F \~QUARTUS_CREATED_GND~I_combout\ $end
$var wire 1 G \~QUARTUS_CREATED_UNVM~~busy\ $end
$var wire 1 H \~QUARTUS_CREATED_ADC1~~eoc\ $end
$var wire 1 I \~QUARTUS_CREATED_ADC2~~eoc\ $end
$var wire 1 J \PState[0]~output_o\ $end
$var wire 1 K \PState[1]~output_o\ $end
$var wire 1 L \PState[2]~output_o\ $end
$var wire 1 M \PState[3]~output_o\ $end
$var wire 1 N \Output~output_o\ $end
$var wire 1 O \CK~input_o\ $end
$var wire 1 P \CK~inputclkctrl_outclk\ $end
$var wire 1 Q \Input~input_o\ $end
$var wire 1 R \Selector1~0_combout\ $end
$var wire 1 S \NS.S2~q\ $end
$var wire 1 T \NS.S3~0_combout\ $end
$var wire 1 U \NS.S3~q\ $end
$var wire 1 V \PState~0_combout\ $end
$var wire 1 W \PState[0]~reg0_q\ $end
$var wire 1 X \Selector3~0_combout\ $end
$var wire 1 Y \PState[1]~reg0_q\ $end
$upscope $end
$upscope $end
$enddefinitions $end
#0
$dumpvars
0!
1"
0#
0(
1)
x*
1+
1,
1-
1.
1/
10
11
02
07
0F
zG
zH
zI
0J
0K
0L
0M
0N
0O
0P
1Q
0R
0S
0T
0U
1V
0W
0X
0Y
0$
0%
0&
0'
03
04
05
06
1B
1C
1D
0E
08
09
0:
0;
0<
0=
0>
0?
0@
0A
$end
#50000
1!
12
1O
1E
1P
1W
1J
16
1'
#70000
0"
01
0Q
1R
0V
1X
#80000
1"
11
1Q
0R
1V
0X
#90000
0"
01
0Q
1R
0V
1X
#100000
0!
02
0O
0E
0P
#150000
1!
1"
12
11
1Q
1O
1E
0R
1V
0X
1P
#180000
0"
01
0Q
1R
0V
1X
#200000
0!
02
0O
0E
0P
#220000
1"
11
1Q
0R
1V
0X
#230000
0"
01
0Q
1R
0V
1X
#250000
1!
12
1O
1E
1P
1S
0W
1Y
1K
0J
0R
0X
15
06
0'
1&
#260000
1"
11
1Q
1T
1V
1X
#270000
0"
01
0Q
0T
0V
0X
#300000
0!
02
0O
0E
0P
#310000
1"
11
1Q
1T
1V
1X
#350000
0"
1!
01
12
1O
0Q
1E
0T
0V
0X
1P
0S
0Y
0K
1R
1X
05
0&
#390000
1"
11
1Q
0R
1V
0X
#400000
0"
0!
01
02
0O
0Q
0E
1R
0V
1X
0P
#410000
1"
11
1Q
0R
1V
0X
#430000
0"
01
0Q
1R
0V
1X
#440000
1"
11
1Q
0R
1V
0X
#450000
0"
1!
01
12
1O
0Q
1E
1R
0V
1X
1P
1S
1Y
1K
0R
0X
15
1&
#460000
1"
11
1Q
1T
1V
1X
#470000
0"
01
0Q
0T
0V
0X
#500000
0!
02
0O
0E
0P
#510000
1"
11
1Q
1T
1V
1X
#530000
0"
01
0Q
0T
0V
0X
#550000
1"
1!
11
12
1O
1Q
1E
1T
1V
1X
1P
0S
1U
1W
1J
1N
0V
0T
0X
16
17
1'
1#
#570000
0"
01
0Q
1T
1V
1X
#580000
1"
11
1Q
0T
0V
0X
#600000
0"
0!
01
02
0O
0Q
0E
1T
1V
1X
0P
#610000
1"
11
1Q
0T
0V
0X
#650000
0"
1!
01
12
1O
0Q
1E
1T
1V
1X
1P
#670000
1"
11
1Q
0T
0V
0X
#700000
0"
0!
01
02
0O
0Q
0E
1T
1V
1X
0P
#720000
1"
11
1Q
0T
0V
0X
#730000
0"
01
0Q
1T
1V
1X
#740000
1"
11
1Q
0T
0V
0X
#750000
0"
1!
01
12
1O
0Q
1E
1T
1V
1X
1P
#770000
1"
11
1Q
0T
0V
0X
#780000
0"
01
0Q
1T
1V
1X
#800000
1"
0!
11
02
0O
1Q
0E
0T
0V
0X
0P
#820000
0"
01
0Q
1T
1V
1X
#850000
1!
12
1O
1E
1P
#870000
1"
11
1Q
0T
0V
0X
#900000
0!
02
0O
0E
0P
#910000
0"
01
0Q
1T
1V
1X
#920000
1"
11
1Q
0T
0V
0X
#940000
0"
01
0Q
1T
1V
1X
#950000
1"
1!
11
12
1O
1Q
1E
0T
0V
0X
1P
0U
0W
0Y
0K
0J
0N
1V
05
06
07
0'
0&
0#
#960000
0"
01
0Q
1R
0V
1X
#970000
1"
11
1Q
0R
1V
0X
#980000
0"
01
0Q
1R
0V
1X
#990000
1"
11
1Q
0R
1V
0X
